Outlier Detection in Genetic Data • molic
…
# Extracting the two databases for each copy of the chromosomes
eur_a <- eur %>%
  filter(grepl("a$", sample_name)) %>%
  select(-c(1:2))

eur_b <- eur %>%
  filter(grepl("b$", sample_name)) %>%
  select(-c(1:2))

We peak at data:

print(eur, n_extra = 0)

## # A tibble: 1,006 x 304
##    sample_name pop_meta rs28529526 rs10134526 rs260694 rs11123719 rs11691107
##    <chr>       <chr>    <chr>      <chr>      <chr>    <chr>      <chr>     
##  1 HG00096a    EUR      G          C          T        T          C         
##  2 HG00097a    EUR      G          T          T        C          C         
##  3 HG00099a    EUR      G          C          T        T          C         
##  4 HG00100a    EUR      G          C          T        T          C         
##  5 HG00101a    EUR      G          C          T        T          C         
##  6 HG00102a    EUR      G          C          T        T          C         
##  7 HG00103a    EUR      G          C          T        C          C         
##  8 HG00105a    EUR      G          T          T        C          C         
##  9 HG00106a    EUR      G          C          T        C          C         
## 10 HG00107a    EUR      G          C          T        T          C         
## # … with 996 more rows, and 297 more variables
…
